id,name,model_id:id,group_id:id,perm_read,perm_write,perm_create,perm_unlink
access_cars_cars,cars.cars,model_cars_cars,base.group_user,1,1,1,1
access_parking_parking,parking.parking,model_parking_parking,base.group_user,1,1,1,1
access_feature_feature,feature.feature,model_feature_feature,base.group_user,1,1,1,1